Mark Lai - Bayesian MLM With Group Mean Centering
…
library(tidyverse)
library(haven)
library(lme4)
library(brms)
library(rstan)
# rstan_options(auto_write = TRUE)
# options(mc.cores = 2L)

hsb <- haven::read_sas('https://stats.idre.ucla.edu/wp-content/uploads/2016/02/hsb.sas7bdat')
# Select a subsample
set.seed(123)
hsb_sub <- hsb %>% group_by(ID) %>% sample_n(5)
hsb_sub

# A tibble: 800 × 12
# Groups:   ID [160]
   ID     SIZE SECTOR PRACAD DISCLIM HIMINTY MEANSES MINORITY FEMALE    SES
   <chr> <dbl>  <dbl>  <dbl>   <dbl>   <dbl>   <dbl>    <dbl>  <dbl>  <dbl>
 1 1224    842      0   0.35   1.60        0  -0.428        0      1 -0.478
 2 1224    842      0   0.35   1.60        0  -0.428        0      0  0.332
 3 1224    842      0   0.35   1.60        0  -0.428        0      1 -0.988
 4 1224    842      0   0.35   1.60        0  -0.428        0      0 -0.528
 5 1224    842      0   0.35   1.60        0  -0.428        0      1 -1.07 
 6 1288   1855      0   0.27   0.174       0   0.128        0      1  0.692
 7 1288   1855      0   0.27   0.174       0   0.128        0      0 -0.118
 8 1288   1855      0   0.27   0.174       0   0.128        0      0  1.26 
 9 1288   1855      0   0.27   0.174       0   0.128        1      1 -1.47 
10 1288   1855      0   0.27   0.174       0   0.128        0      0  0.222
# ℹ 790 more rows
# ℹ 2 more variables: MATHACH <dbl>, `_MERGE` <dbl>
…
