…
## Implement MML Estimation in Julia

### Import R data

``` julia
using RCall
lsat = rcopy(R"mirt::LSAT6")
```

    30×6 DataFrame
     Row │ Item_1  Item_2  Item_3  Item_4  Item_5  Freq
         │ Int64   Int64   Int64   Int64   Int64   Int64
    ─────┼───────────────────────────────────────────────
       1 │      0       0       0       0       0      3
       2 │      0       0       0       0       1      6
       3 │      0       0       0       1       0      2
       4 │      0       0       0       1       1     11
       5 │      0       0       1       0       0      1
       6 │      0       0       1       0       1      1
       7 │      0       0       1       1       0      3
       8 │      0       0       1       1       1      4
      ⋮  │   ⋮       ⋮       ⋮       ⋮       ⋮       ⋮
      24 │      1       1       0       0       1     56
      25 │      1       1       0       1       0     21
      26 │      1       1       0       1       1    173
      27 │      1       1       1       0       0     11
      28 │      1       1       1       0       1     61
      29 │      1       1       1       1       0     28
      30 │      1       1       1       1       1    298
                                          15 rows omitted
…
