…
$$
  \begin{aligned}
    \ell_{ij} & = y_{ij} \log \eta_{ij} - \log[1 + \exp(\eta_{ij})] \\
    \eta_{ij} & = a_j \theta_i + d_j
  \end{aligned}.
$$

In addition, in IRT, because item responses are discrete, the $N$ observations can usually be reduced to a smaller number of $l$ response patterns. For example, with the `LSAT` data, which has 1,000 observations, it only has 30 response patterns of 5 binary items:

``` julia
using RCall
lsat = rcopy(R"mirt::LSAT6")
```

    30×6 DataFrame
     Row │ Item_1  Item_2  Item_3  Item_4  Item_5  Freq
         │ Int64   Int64   Int64   Int64   Int64   Int64
    ─────┼───────────────────────────────────────────────
       1 │      0       0       0       0       0      3
       2 │      0       0       0       0       1      6
       3 │      0       0       0       1       0      2
       4 │      0       0       0       1       1     11
       5 │      0       0       1       0       0      1
       6 │      0       0       1       0       1      1
       7 │      0       0       1       1       0      3
       8 │      0       0       1       1       1      4
      ⋮  │   ⋮       ⋮       ⋮       ⋮       ⋮       ⋮
      24 │      1       1       0       0       1     56
      25 │      1       1       0       1       0     21
      26 │      1       1       0       1       1    173
      27 │      1       1       1       0       0     11
      28 │      1       1       1       0       1     61
      29 │      1       1       1       1       0     28
      30 │      1       1       1       1       1    298
                                          15 rows omitted
…
