…
The data are from the mediation package, which are simulated data with the source of the Education Longitudinal Study of 2002. For the interest of time as well as to consider situations where asymptotic normality may not hold, I only select 50 schools (out of 568) from the sample.

library(tidyverse)
library(lme4)
library(mediation)
data("school", package = "mediation")
# Select only a random sample of 24 schools, stratified by 
# `coed` and `catholic`
set.seed(827)
# School-level subsample:
school_sub <- school %>% sample_n(size = 50) %>% arrange(SCH_ID)
school_sub %>% as_data_frame()

## # A tibble: 50 x 5
##    SCH_ID  coed smorale  free catholic
##     <int> <int>   <int> <int>    <int>
##  1     31     1       4     1        0
##  2     34     1       4     4        0
##  3     51     1       4     4        0
##  4     67     1       3     4        0
##  5     98     1       2     3        0
##  6    104     1       4     2        0
##  7    117     1       3     1        0
##  8    122     1       5     6        0
##  9    130     1       4     4        1
## 10    132     1       5     5        0
## # ... with 40 more rows

# Student-level subsample:
student_sub <- student %>% filter(SCH_ID %in% school_sub$SCH_ID)
student_sub %>% as_data_frame()

## # A tibble: 806 x 13
##    fight attachment  work score  late  coed smorale gender income  free
##    <int>      <int> <int> <int> <int> <int>   <int>  <int>  <int> <int>
##  1     0          0     0    37     3     1       4      1      7     6
##  2     0          1     0    38     2     1       4      1     10     6
##  3     1          1     0    46     2     1       4      0      8     6
##  4     1          0     1    50     3     1       4      0     10     6
##  5     0          1     1    40     3     1       4      1      6     6
##  6     0          1     0    52     3     1       4      1      8     6
##  7     0          0     1    37     1     1       4      0      9     6
##  8     0          1     0    41     4     1       4      0      7     6
##  9     0          1     1    34     3     1       4      0      8     6
## 10     0          1     1    54     3     1       4      0      7     6
## # ... with 796 more rows, and 3 more variables: pared <int>,
## #   catholic <int>, SCH_ID <int>
…
