Mark Lai - Confidence Intervals for Multilevel Mediation (Draft)
…
Warning: `as_data_frame()` was deprecated in tibble 2.0.0.
ℹ Please use `as_tibble()` (with slightly different semantics) to convert to a
  tibble, or `as.data.frame()` to convert to a data frame.

# A tibble: 50 × 5
   SCH_ID  coed smorale  free catholic
    <int> <int>   <int> <int>    <int>
 1      7     1       5     3        0
 2     12     1       3     4        0
 3     14     1       3     2        0
 4     15     1       4     4        0
 5     33     1       4     3        0
 6     36     1       3     6        0
 7     38     1       5     4        0
 8     43     1       3     3        0
 9     52     1       5     1        0
10     55     1       4     6        0
# ℹ 40 more rows

# Student-level subsample:
student_sub <- student %>% filter(SCH_ID %in% school_sub$SCH_ID)
student_sub %>% as_data_frame()

# A tibble: 804 × 13
   fight attachment  work score  late  coed smorale gender income  free pared
   <int>      <int> <int> <int> <int> <int>   <int>  <int>  <int> <int> <int>
 1     0          1     0    52     2     1       4      1     10     6     0
 2     0          0     0    49     3     1       4      1      8     6     0
 3     0          1     0    52     1     1       4      1      8     6     0
 4     0          1     0    57     1     1       4      1     10     6     1
 5     0          1     0    42     2     1       4      1      8     6     1
 6     0          1     0    45     2     1       4      0     10     6     0
 7     0          1     0    41     1     1       4      1      5     6     0
 8     0          1     1    44     3     1       4      0      9     6     0
 9     0          0     1    37     3     1       4      1      5     6     0
10     0          1     0    61     2     1       4      0      8     6     0
# ℹ 794 more rows
# ℹ 2 more variables: catholic <int>, SCH_ID <int>
…
