…
## [1] 1.074626

# The above is equivalent to 
# x <- x + 1

For the cluster mean example, we can do

Hsb82 %<>% 
  group_by(school) %>% 
  mutate(ses_cm2 = mean(ses)) %>% 
  ungroup()
select(Hsb82, ses_cm, ses_cm2)

## # A tibble: 7,185 x 2
##    ses_cm ses_cm2
##     <dbl>   <dbl>
##  1 -0.434  -0.434
##  2 -0.434  -0.434
##  3 -0.434  -0.434
##  4 -0.434  -0.434
##  5 -0.434  -0.434
##  6 -0.434  -0.434
##  7 -0.434  -0.434
##  8 -0.434  -0.434
##  9 -0.434  -0.434
## 10 -0.434  -0.434
## # … with 7,175 more rows
…
