Mark Lai - Mixed Factorial ANOVA in R
…
# First, convert to long format data
long_data <- tidyr::pivot_longer(
  charisma_data,
  cols = ug_high:ug_none,
  # name of IV
  names_to = "charisma",
  # remove the "ug_" prefix
  names_prefix = "ug_", 
  # name of DV
  values_to = "rating"
)
long_data

# A tibble: 60 × 4
   participant gender charisma rating
   <chr>       <chr>  <chr>     <int>
 1 P01         Male   high         67
 2 P01         Male   some         50
 3 P01         Male   none         47
 4 P02         Male   high         53
 5 P02         Male   some         48
 6 P02         Male   none         46
 7 P03         Male   high         48
 8 P03         Male   some         48
 9 P03         Male   none         48
10 P04         Male   high         58
# ℹ 50 more rows
…
